Lab2/Moore/simulation/qsim/MooreFSM.msim.vcd
$comment
	File created using the following command:
		vcd file MooreFSM.msim.vcd -direction
$end
$date
	Thu Oct 22 07:46:53 2020
$end
$version
	ModelSim Version 10.1d
$end
$timescale
	1ps
$end
$scope module MooreFSM_vlg_vec_tst $end
$var reg 1 ! clk $end
$var wire 1 " MooreFSM_o [15] $end
$var wire 1 # MooreFSM_o [14] $end
$var wire 1 $ MooreFSM_o [13] $end
$var wire 1 % MooreFSM_o [12] $end
$var wire 1 & MooreFSM_o [11] $end
$var wire 1 ' MooreFSM_o [10] $end
$var wire 1 ( MooreFSM_o [9] $end
$var wire 1 ) MooreFSM_o [8] $end
$var wire 1 * MooreFSM_o [7] $end
$var wire 1 + MooreFSM_o [6] $end
$var wire 1 , MooreFSM_o [5] $end
$var wire 1 - MooreFSM_o [4] $end
$var wire 1 . MooreFSM_o [3] $end
$var wire 1 / MooreFSM_o [2] $end
$var wire 1 0 MooreFSM_o [1] $end
$var wire 1 1 MooreFSM_o [0] $end
$var wire 1 2 sampler $end
$scope module i1 $end
$var wire 1 3 gnd $end
$var wire 1 4 vcc $end
$var wire 1 5 unknown $end
$var tri1 1 6 devclrn $end
$var tri1 1 7 devpor $end
$var tri1 1 8 devoe $end
$var wire 1 9 NextState_inst0|Add0~8_combout $end
$var wire 1 : NextState_inst0|Equal0~2_combout $end
$var wire 1 ; clk~combout $end
$var wire 1 < NextState_inst0|Add0~0_combout $end
$var wire 1 = NextState_inst0|Add0~1 $end
$var wire 1 > NextState_inst0|Add0~2_combout $end
$var wire 1 ? NextState_inst0|Add0~3 $end
$var wire 1 @ NextState_inst0|Add0~4_combout $end
$var wire 1 A NextState_inst0|Add0~5 $end
$var wire 1 B NextState_inst0|Add0~6_combout $end
$var wire 1 C NextState_inst0|Equal0~0_combout $end
$var wire 1 D NextState_inst0|Add0~7 $end
$var wire 1 E NextState_inst0|Add0~9 $end
$var wire 1 F NextState_inst0|Add0~10_combout $end
$var wire 1 G NextState_inst0|Add0~11 $end
$var wire 1 H NextState_inst0|Add0~12_combout $end
$var wire 1 I NextState_inst0|Add0~13 $end
$var wire 1 J NextState_inst0|Add0~14_combout $end
$var wire 1 K NextState_inst0|Equal0~1_combout $end
$var wire 1 L NextState_inst0|Add0~15 $end
$var wire 1 M NextState_inst0|Add0~17 $end
$var wire 1 N NextState_inst0|Add0~19 $end
$var wire 1 O NextState_inst0|Add0~21 $end
$var wire 1 P NextState_inst0|Add0~23 $end
$var wire 1 Q NextState_inst0|Add0~25 $end
$var wire 1 R NextState_inst0|Add0~27 $end
$var wire 1 S NextState_inst0|Add0~28_combout $end
$var wire 1 T NextState_inst0|Add0~29 $end
$var wire 1 U NextState_inst0|Add0~30_combout $end
$var wire 1 V NextState_inst0|Equal0~3_combout $end
$var wire 1 W NextState_inst0|Add0~24_combout $end
$var wire 1 X NextState_inst0|Add0~26_combout $end
$var wire 1 Y NextState_inst0|Equal0~4_combout $end
$var wire 1 Z NextState_inst0|NS_o[4]~0_combout $end
$var wire 1 [ NextState_inst0|Add0~16_combout $end
$var wire 1 \ NextState_inst0|Add0~18_combout $end
$var wire 1 ] NextState_inst0|Add0~20_combout $end
$var wire 1 ^ NextState_inst0|Add0~22_combout $end
$var wire 1 _ register_inst1|data_o [15] $end
$var wire 1 ` register_inst1|data_o [14] $end
$var wire 1 a register_inst1|data_o [13] $end
$var wire 1 b register_inst1|data_o [12] $end
$var wire 1 c register_inst1|data_o [11] $end
$var wire 1 d register_inst1|data_o [10] $end
$var wire 1 e register_inst1|data_o [9] $end
$var wire 1 f register_inst1|data_o [8] $end
$var wire 1 g register_inst1|data_o [7] $end
$var wire 1 h register_inst1|data_o [6] $end
$var wire 1 i register_inst1|data_o [5] $end
$var wire 1 j register_inst1|data_o [4] $end
$var wire 1 k register_inst1|data_o [3] $end
$var wire 1 l register_inst1|data_o [2] $end
$var wire 1 m register_inst1|data_o [1] $end
$var wire 1 n register_inst1|data_o [0] $end
$upscope $end
$upscope $end
$enddefinitions $end
#0
$dumpvars
0!
01
00
0/
0.
0-
0,
0+
0*
0)
0(
0'
0&
0%
0$
0#
0"
x2
03
14
x5
16
17
18
09
1:
0;
1<
0=
0>
1?
0@
0A
0B
0C
1D
0E
0F
1G
0H
0I
0J
1K
1L
0M
1N
0O
1P
0Q
1R
0S
0T
0U
1V
0W
0X
1Y
0Z
0[
0\
0]
0^
0n
0m
0l
0k
0j
0i
0h
0g
0f
0e
0d
0c
0b
0a
0`
0_
$end
#10000
1!
1;
02
1n
1=
0<
11
1>
#20000
0!
0;
12
#30000
1!
1;
02
1m
0n
0?
0>
0=
1<
10
01
1@
1?
1>
0@
#40000
0!
0;
12
#50000
1!
1;
02
1n
1=
0<
11
0?
0>
1@
#60000
0!
0;
12
#70000
1!
1;
02
1l
0m
0n
1A
0@
1?
1>
0=
1<
1/
00
01
1B
0A
1@
0>
0B
#80000
0!
0;
12
#90000
1!
1;
02
1n
1=
0<
11
1>
#100000
0!
0;
12
#110000
1!
1;
02
1m
0n
0?
0>
0=
1<
10
01
1A
0@
1?
1>
1B
0A
1@
0B
#120000
0!
0;
12
#130000
1!
1;
02
1n
1=
0<
11
0?
0>
1A
0@
1B
#140000
0!
0;
12
#150000
1!
1;
02
1k
0l
0m
0n
0D
0B
0A
1@
1?
1>
0=
1<
1.
0/
00
01
19
1D
1B
0@
0>
1Z
09
0Z
#160000
0!
0;
12
#170000
1!
1;
02
1n
1=
0<
11
1>
#180000
0!
0;
12
#190000
1!
1;
02
1m
0n
0?
0>
0=
1<
10
01
1@
1?
1>
0@
#200000
0!
0;
12
#210000
1!
1;
02
1n
1=
0<
11
0?
0>
1@
#220000
0!
0;
12
#230000
1!
1;
02
1l
0m
0n
1A
0@
1?
1>
0=
1<
1/
00
01
0D
0B
0A
1@
0>
19
1D
1B
1Z
09
0Z
#240000
0!
0;
12
#250000
1!
1;
02
1n
1=
0<
11
1>
#260000
0!
0;
12
#270000
1!
1;
02
1m
0n
0?
0>
0=
1<
10
01
1A
0@
1?
1>
0D
0B
0A
1@
19
1D
1B
1Z
09
0Z
#280000
0!
0;
12
#290000
1!
1;
02
1n
1C
1=
0<
11
0?
0>
1A
0@
0D
0B
19
#300000
0!
0;
12
#310000
1!
1;
02
0k
0l
0m
0n
0C
1D
1B
0A
1@
1?
1>
0=
1<
0.
0/
00
01
1Z
09
0B
0@
0>
0Z
#320000
0!
0;
12
#330000
1!
1;
02
1n
1=
0<
11
1>
#340000
0!
0;
12
#350000
1!
1;
02
1m
0n
0?
0>
0=
1<
10
01
1@
1?
1>
0@
#360000
0!
0;
12
#370000
1!
1;
02
1n
1=
0<
11
0?
0>
1@
#380000
0!
0;
12
#390000
1!
1;
02
1l
0m
0n
1A
0@
1?
1>
0=
1<
1/
00
01
1B
0A
1@
0>
0B
#400000
0!
0;
12
#410000
1!
1;
02
1n
1=
0<
11
1>
#420000
0!
0;
12
#430000
1!
1;
02
1m
0n
0?
0>
0=
1<
10
01
1A
0@
1?
1>
1B
0A
1@
0B
#440000
0!
0;
12
#450000
1!
1;
02
1n
1=
0<
11
0?
0>
1A
0@
1B
#460000
0!
0;
12
#470000
1!
1;
02
1k
0l
0m
0n
0D
0B
0A
1@
1?
1>
0=
1<
1.
0/
00
01
19
1D
1B
0@
0>
1Z
09
0Z
#480000
0!
0;
12
#490000
1!
1;
02
1n
1=
0<
11
1>
#500000
0!
0;
12
#510000
1!
1;
02
1m
0n
0?
0>
0=
1<
10
01
1@
1?
1>
0@
#520000
0!
0;
12
#530000
1!
1;
02
1n
1=
0<
11
0?
0>
1@
#540000
0!
0;
12
#550000
1!
1;
02
1l
0m
0n
1A
0@
1?
1>
0=
1<
1/
00
01
0D
0B
0A
1@
0>
19
1D
1B
1Z
09
0Z
#560000
0!
0;
12
#570000
1!
1;
02
1n
1=
0<
11
1>
#580000
0!
0;
12
#590000
1!
1;
02
1m
0n
0?
0>
0=
1<
10
01
1A
0@
1?
1>
0D
0B
0A
1@
19
1D
1B
1Z
09
0Z
#600000
0!
0;
12
#610000
1!
1;
02
1n
1C
1=
0<
11
0?
0>
1A
0@
0D
0B
19
#620000
0!
0;
12
#630000
1!
1;
02
0k
0l
0m
0n
0C
1D
1B
0A
1@
1?
1>
0=
1<
0.
0/
00
01
1Z
09
0B
0@
0>
0Z
#640000
0!
0;
12
#650000
1!
1;
02
1n
1=
0<
11
1>
#660000
0!
0;
12
#670000
1!
1;
02
1m
0n
0?
0>
0=
1<
10
01
1@
1?
1>
0@
#680000
0!
0;
12
#690000
1!
1;
02
1n
1=
0<
11
0?
0>
1@
#700000
0!
0;
12
#710000
1!
1;
02
1l
0m
0n
1A
0@
1?
1>
0=
1<
1/
00
01
1B
0A
1@
0>
0B
#720000
0!
0;
12
#730000
1!
1;
02
1n
1=
0<
11
1>
#740000
0!
0;
12
#750000
1!
1;
02
1m
0n
0?
0>
0=
1<
10
01
1A
0@
1?
1>
1B
0A
1@
0B
#760000
0!
0;
12
#770000
1!
1;
02
1n
1=
0<
11
0?
0>
1A
0@
1B
#780000
0!
0;
12
#790000
1!
1;
02
1k
0l
0m
0n
0D
0B
0A
1@
1?
1>
0=
1<
1.
0/
00
01
19
1D
1B
0@
0>
1Z
09
0Z
#800000
0!
0;
12
#810000
1!
1;
02
1n
1=
0<
11
1>
#820000
0!
0;
12
#830000
1!
1;
02
1m
0n
0?
0>
0=
1<
10
01
1@
1?
1>
0@
#840000
0!
0;
12
#850000
1!
1;
02
1n
1=
0<
11
0?
0>
1@
#860000
0!
0;
12
#870000
1!
1;
02
1l
0m
0n
1A
0@
1?
1>
0=
1<
1/
00
01
0D
0B
0A
1@
0>
19
1D
1B
1Z
09
0Z
#880000
0!
0;
12
#890000
1!
1;
02
1n
1=
0<
11
1>
#900000
0!
0;
12
#910000
1!
1;
02
1m
0n
0?
0>
0=
1<
10
01
1A
0@
1?
1>
0D
0B
0A
1@
19
1D
1B
1Z
09
0Z
#920000
0!
0;
12
#930000
1!
1;
02
1n
1C
1=
0<
11
0?
0>
1A
0@
0D
0B
19
#940000
0!
0;
12
#950000
1!
1;
02
0k
0l
0m
0n
0C
1D
1B
0A
1@
1?
1>
0=
1<
0.
0/
00
01
1Z
09
0B
0@
0>
0Z
#960000
0!
0;
12
#970000
1!
1;
02
1n
1=
0<
11
1>
#980000
0!
0;
12
#990000
1!
1;
02
1m
0n
0?
0>
0=
1<
10
01
1@
1?
1>
0@
