Lab1/simulation/qsim/Bai1.msim.vcd
$comment
	File created using the following command:
		vcd file Bai1.msim.vcd -direction
$end
$date
	Mon Sep 28 15:45:31 2020
$end
$version
	ModelSim Version 10.1d
$end
$timescale
	1ps
$end
$scope module Lab1_vlg_vec_tst $end
$var reg 1 ! clk $end
$var reg 1 " load $end
$var reg 4 # value [3:0] $end
$var wire 1 $ count_o [3] $end
$var wire 1 % count_o [2] $end
$var wire 1 & count_o [1] $end
$var wire 1 ' count_o [0] $end
$var wire 1 ( sampler $end
$scope module i1 $end
$var wire 1 ) gnd $end
$var wire 1 * vcc $end
$var wire 1 + unknown $end
$var tri1 1 , devclrn $end
$var tri1 1 - devpor $end
$var tri1 1 . devoe $end
$var wire 1 / loadLogic_inst0|WideOr1~0_combout $end
$var wire 1 0 loadLogic_inst0|qin_o[2]~1_combout $end
$var wire 1 1 loadLogic_inst0|WideOr0~0_combout $end
$var wire 1 2 clk~combout $end
$var wire 1 3 load~combout $end
$var wire 1 4 loadLogic_inst0|qin_o[0]~0_combout $end
$var wire 1 5 loadLogic_inst0|qin_o~2_combout $end
$var wire 1 6 loadLogic_inst0|qin_o[2]~3_combout $end
$var wire 1 7 transfer_inst0|Decoder1~0_combout $end
$var wire 1 8 loadLogic_inst0|qin_o[1]~4_combout $end
$var wire 1 9 transfer_inst0|WideOr0~0_combout $end
$var wire 1 : transfer_inst0|Decoder0~0_combout $end
$var wire 1 ; transfer_inst0|data_o[3]~0_combout $end
$var wire 1 < value~combout [3] $end
$var wire 1 = value~combout [2] $end
$var wire 1 > value~combout [1] $end
$var wire 1 ? value~combout [0] $end
$var wire 1 @ register_inst0|data_o [2] $end
$var wire 1 A register_inst0|data_o [1] $end
$var wire 1 B register_inst0|data_o [0] $end
$upscope $end
$upscope $end
$enddefinitions $end
#0
$dumpvars
0!
0"
b1100 #
1'
0&
0%
0$
x(
0)
1*
x+
1,
1-
1.
0/
00
01
02
03
14
05
06
07
08
19
0:
0;
0?
0>
1=
1<
0B
0A
0@
$end
#10000
1!
12
0(
1B
1;
18
17
04
1$
0'
#20000
0!
02
1(
#30000
1!
12
0(
1A
0B
0;
1:
07
14
0$
1%
1'
#40000
0!
02
1(
#50000
1!
12
0(
1B
0:
09
08
17
04
10
16
0%
1&
0'
#60000
0!
02
1(
#70000
1!
12
0(
0A
1@
0B
19
07
14
0&
1'
#80000
0!
02
1(
#90000
1!
12
0(
1B
09
18
04
1&
#100000
1"
b100 #
b0 #
0!
13
0=
0<
02
1(
08
00
06
#110000
1!
12
0(
0@
0B
19
0&
#120000
0"
0!
03
02
1(
14
#130000
1!
12
0(
1B
1;
18
17
04
1$
0'
#140000
0!
02
1(
#150000
1!
12
0(
1A
0B
0;
1:
07
14
0$
1%
1'
#160000
0!
02
1(
#170000
1!
12
0(
1B
0:
09
08
17
04
10
16
0%
1&
0'
#180000
b1 #
1"
0!
1?
13
02
1(
00
06
#190000
1!
12
0(
0A
0B
19
07
0&
1'
#200000
0"
0!
03
02
1(
14
#210000
1!
12
0(
1B
1;
18
17
04
1$
0'
#220000
0!
02
1(
#230000
1!
12
0(
1A
0B
0;
1:
07
14
0$
1%
1'
#240000
0!
02
1(
#250000
1!
12
0(
1B
0:
09
08
17
04
10
16
0%
1&
0'
#260000
b11 #
b10 #
1"
0!
0?
1>
13
02
1(
11
1/
00
18
14
06
#270000
1!
12
0(
#280000
0"
0!
03
02
1(
08
04
10
16
#290000
1!
12
0(
0A
1@
0B
19
07
14
0&
1'
#300000
0!
02
1(
#310000
1!
12
0(
1B
09
18
04
1&
#320000
0!
02
1(
#330000
1!
12
0(
1A
0B
1;
19
14
1$
0&
#340000
b0 #
0!
0>
02
1(
01
0/
#350000
1!
12
0(
1B
0;
09
08
04
00
06
0$
1&
#360000
0!
02
1(
#370000
1!
12
0(
0A
0@
0B
19
14
0&
#380000
0!
02
1(
#390000
1!
12
0(
1B
1;
18
17
04
1$
0'
#400000
0!
02
1(
#410000
1!
12
0(
1A
0B
0;
1:
07
14
0$
1%
1'
#420000
0!
02
1(
#430000
1!
12
0(
1B
0:
09
08
17
04
10
16
0%
1&
0'
#440000
0!
02
1(
#450000
1!
12
0(
0A
1@
0B
19
07
14
0&
1'
#460000
0!
02
1(
#470000
1!
12
0(
1B
09
18
04
1&
#480000
0!
02
1(
#490000
1!
12
0(
1A
0B
1;
19
14
1$
0&
#500000
0!
02
1(
#510000
1!
12
0(
1B
0;
09
08
04
00
06
0$
1&
#520000
0!
02
1(
#530000
1!
12
0(
0A
0@
0B
19
14
0&
#540000
0!
02
1(
#550000
1!
12
0(
1B
1;
18
17
04
1$
0'
#560000
0!
02
1(
#570000
1!
12
0(
1A
0B
0;
1:
07
14
0$
1%
1'
#580000
0!
02
1(
#590000
1!
12
0(
1B
0:
09
08
17
04
10
16
0%
1&
0'
#600000
0!
02
1(
#610000
1!
12
0(
0A
1@
0B
19
07
14
0&
1'
#620000
0!
02
1(
#630000
1!
12
0(
1B
09
18
04
1&
#640000
0!
02
1(
#650000
1!
12
0(
1A
0B
1;
19
14
1$
0&
#660000
0!
02
1(
#670000
1!
12
0(
1B
0;
09
08
04
00
06
0$
1&
#680000
0!
02
1(
#690000
1!
12
0(
0A
0@
0B
19
14
0&
#700000
0!
02
1(
#710000
1!
12
0(
1B
1;
18
17
04
1$
0'
#720000
0!
02
1(
#730000
1!
12
0(
1A
0B
0;
1:
07
14
0$
1%
1'
#740000
0!
02
1(
#750000
1!
12
0(
1B
0:
09
08
17
04
10
16
0%
1&
0'
#760000
0!
02
1(
#770000
1!
12
0(
0A
1@
0B
19
07
14
0&
1'
#780000
0!
02
1(
#790000
1!
12
0(
1B
09
18
04
1&
#800000
0!
02
1(
#810000
1!
12
0(
1A
0B
1;
19
14
1$
0&
#820000
0!
02
1(
#830000
1!
12
0(
1B
0;
09
08
04
00
06
0$
1&
#840000
0!
02
1(
#850000
1!
12
0(
0A
0@
0B
19
14
0&
#860000
0!
02
1(
#870000
1!
12
0(
1B
1;
18
17
04
1$
0'
#880000
0!
02
1(
#890000
1!
12
0(
1A
0B
0;
1:
07
14
0$
1%
1'
#900000
0!
02
1(
#910000
1!
12
0(
1B
0:
09
08
17
04
10
16
0%
1&
0'
#920000
0!
02
1(
#930000
1!
12
0(
0A
1@
0B
19
07
14
0&
1'
#940000
0!
02
1(
#950000
1!
12
0(
1B
09
18
04
1&
#960000
0!
02
1(
#970000
1!
12
0(
1A
0B
1;
19
14
1$
0&
#980000
0!
02
1(
#990000
1!
12
0(
1B
0;
09
08
04
00
06
0$
1&
#1000000
0!
02
1(
#1010000
1!
12
0(
0A
0@
0B
19
14
0&
#1020000
0!
02
1(
#1030000
1!
12
0(
1B
1;
18
17
04
1$
0'
#1040000
0!
02
1(
#1050000
1!
12
0(
1A
0B
0;
1:
07
14
0$
1%
1'
#1060000
0!
02
1(
#1070000
1!
12
0(
1B
0:
09
08
17
04
10
16
0%
1&
0'
#1080000
0!
02
1(
#1090000
1!
12
0(
0A
1@
0B
19
07
14
0&
1'
#1100000
0!
02
1(
#1110000
1!
12
0(
1B
09
18
04
1&
#1120000
0!
02
1(
#1130000
1!
12
0(
1A
0B
1;
19
14
1$
0&
#1140000
0!
02
1(
#1150000
1!
12
0(
1B
0;
09
08
04
00
06
0$
1&
#1160000
0!
02
1(
#1170000
1!
12
0(
0A
0@
0B
19
14
0&
#1180000
0!
02
1(
#1190000
1!
12
0(
1B
1;
18
17
04
1$
0'
#1200000
0!
02
1(
#1210000
1!
12
0(
1A
0B
0;
1:
07
14
0$
1%
1'
#1220000
0!
02
1(
#1230000
1!
12
0(
1B
0:
09
08
17
04
10
16
0%
1&
0'
#1240000
0!
02
1(
#1250000
1!
12
0(
0A
1@
0B
19
07
14
0&
1'
#1260000
0!
02
1(
#1270000
1!
12
0(
1B
09
18
04
1&
#1280000
0!
02
1(
#1290000
1!
12
0(
1A
0B
1;
19
14
1$
0&
#1300000
0!
02
1(
#1310000
1!
12
0(
1B
0;
09
08
04
00
06
0$
1&
#1320000
0!
02
1(
#1330000
1!
12
0(
0A
0@
0B
19
14
0&
#1340000
0!
02
1(
#1350000
1!
12
0(
1B
1;
18
17
04
1$
0'
#1360000
0!
02
1(
#1370000
1!
12
0(
1A
0B
0;
1:
07
14
0$
1%
1'
#1380000
0!
02
1(
#1390000
1!
12
0(
1B
0:
09
08
17
04
10
16
0%
1&
0'
#1400000
0!
02
1(
#1410000
1!
12
0(
0A
1@
0B
19
07
14
0&
1'
#1420000
0!
02
1(
#1430000
1!
12
0(
1B
09
18
04
1&
#1440000
0!
02
1(
#1450000
1!
12
0(
1A
0B
1;
19
14
1$
0&
#1460000
0!
02
1(
#1470000
1!
12
0(
1B
0;
09
08
04
00
06
0$
1&
#1480000
0!
02
1(
#1490000
1!
12
0(
0A
0@
0B
19
14
0&
#1500000
0!
02
1(
#1510000
1!
12
0(
1B
1;
18
17
04
1$
0'
#1520000
0!
02
1(
#1530000
1!
12
0(
1A
0B
0;
1:
07
14
0$
1%
1'
#1540000
0!
02
1(
#1550000
1!
12
0(
1B
0:
09
08
17
04
10
16
0%
1&
0'
#1560000
0!
02
1(
#1570000
1!
12
0(
0A
1@
0B
19
07
14
0&
1'
#1580000
0!
02
1(
#1590000
1!
12
0(
1B
09
18
04
1&
#1600000
0!
02
1(
#1610000
1!
12
0(
1A
0B
1;
19
14
1$
0&
#1620000
0!
02
1(
#1630000
1!
12
0(
1B
0;
09
08
04
00
06
0$
1&
#1640000
0!
02
1(
#1650000
1!
12
0(
0A
0@
0B
19
14
0&
#1660000
0!
02
1(
#1670000
1!
12
0(
1B
1;
18
17
04
1$
0'
#1680000
0!
02
1(
#1690000
1!
12
0(
1A
0B
0;
1:
07
14
0$
1%
1'
#1700000
0!
02
1(
#1710000
1!
12
0(
1B
0:
09
08
17
04
10
16
0%
1&
0'
#1720000
0!
02
1(
#1730000
1!
12
0(
0A
1@
0B
19
07
14
0&
1'
#1740000
0!
02
1(
#1750000
1!
12
0(
1B
09
18
04
1&
#1760000
0!
02
1(
#1770000
1!
12
0(
1A
0B
1;
19
14
1$
0&
#1780000
0!
02
1(
#1790000
1!
12
0(
1B
0;
09
08
04
00
06
0$
1&
#1800000
0!
02
1(
#1810000
1!
12
0(
0A
0@
0B
19
14
0&
#1820000
0!
02
1(
#1830000
1!
12
0(
1B
1;
18
17
04
1$
0'
#1840000
0!
02
1(
#1850000
1!
12
0(
1A
0B
0;
1:
07
14
0$
1%
1'
#1860000
0!
02
1(
#1870000
1!
12
0(
1B
0:
09
08
17
04
10
16
0%
1&
0'
#1880000
0!
02
1(
#1890000
1!
12
0(
0A
1@
0B
19
07
14
0&
1'
#1900000
0!
02
1(
#1910000
1!
12
0(
1B
09
18
04
1&
#1920000
0!
02
1(
#1930000
1!
12
0(
1A
0B
1;
19
14
1$
0&
#1940000
0!
02
1(
#1950000
1!
12
0(
1B
0;
09
08
04
00
06
0$
1&
#1960000
0!
02
1(
#1970000
1!
12
0(
0A
0@
0B
19
14
0&
#1980000
0!
02
1(
#1990000
1!
12
0(
1B
1;
18
17
04
1$
0'
#2000000
0!
02
1(
#2010000
1!
12
0(
1A
0B
0;
1:
07
14
0$
1%
1'
#2020000
0!
02
1(
#2030000
1!
12
0(
1B
0:
09
08
17
04
10
16
0%
1&
0'
#2040000
0!
02
1(
#2050000
1!
12
0(
0A
1@
0B
19
07
14
0&
1'
#2060000
0!
02
1(
#2070000
1!
12
0(
1B
09
18
04
1&
#2080000
0!
02
1(
#2090000
1!
12
0(
1A
0B
1;
19
14
1$
0&
#2100000
0!
02
1(
#2110000
1!
12
0(
1B
0;
09
08
04
00
06
0$
1&
#2120000
0!
02
1(
#2130000
1!
12
0(
0A
0@
0B
19
14
0&
#2140000
0!
02
1(
#2150000
1!
12
0(
1B
1;
18
17
04
1$
0'
#2160000
0!
02
1(
#2170000
1!
12
0(
1A
0B
0;
1:
07
14
0$
1%
1'
#2180000
0!
02
1(
#2190000
1!
12
0(
1B
0:
09
08
17
04
10
16
0%
1&
0'
#2200000
0!
02
1(
#2210000
1!
12
0(
0A
1@
0B
19
07
14
0&
1'
#2220000
0!
02
1(
#2230000
1!
12
0(
1B
09
18
04
1&
#2240000
0!
02
1(
#2250000
1!
12
0(
1A
0B
1;
19
14
1$
0&
#2260000
0!
02
1(
#2270000
1!
12
0(
1B
0;
09
08
04
00
06
0$
1&
#2280000
0!
02
1(
#2290000
1!
12
0(
0A
0@
0B
19
14
0&
#2300000
0!
02
1(
#2310000
1!
12
0(
1B
1;
18
17
04
1$
0'
#2320000
0!
02
1(
#2330000
1!
12
0(
1A
0B
0;
1:
07
14
0$
1%
1'
#2340000
0!
02
1(
#2350000
1!
12
0(
1B
0:
09
08
17
04
10
16
0%
1&
0'
#2360000
0!
02
1(
#2370000
1!
12
0(
0A
1@
0B
19
07
14
0&
1'
#2380000
0!
02
1(
#2390000
1!
12
0(
1B
09
18
04
1&
#2400000
0!
02
1(
#2410000
1!
12
0(
1A
0B
1;
19
14
1$
0&
#2420000
0!
02
1(
#2430000
1!
12
0(
1B
0;
09
08
04
00
06
0$
1&
#2440000
0!
02
1(
#2450000
1!
12
0(
0A
0@
0B
19
14
0&
#2460000
0!
02
1(
#2470000
1!
12
0(
1B
1;
18
17
04
1$
0'
#2480000
0!
02
1(
#2490000
1!
12
0(
1A
0B
0;
1:
07
14
0$
1%
1'
